{
  "/local/*": {
    "target": "http://localhost:9090",
    "secure": false,
    "logLevel": "debug",
    "changeOrigin": true,
    "pathRewrite": {
      "^/local": ""
    }
  },

  "/api/quote/*": {
    "target": "https://api.nasdaq.com",
    "secure": false,
    "logLevel": "debug",
    "changeOrigin": true
  }
}
